@startuml
interface List {
+iterator() : Iterator
}
interface Iterator {
+hasNext() : boolean
+next() : Element
+remove()
}
List <- Client
Client -> Iterator
List <|... LinkedList
List <|.. ArrayList
Iterator <|..ArrayListIterator
Iterator <|... LinkedListIterator
ArrayList .> ArrayListIterator
ArrayList <- ArrayListIterator
LinkedList .> LinkedListIterator
LinkedList <- LinkedListIterator
@enduml
